{
    "name": "GameDev.tv.Stats",
    "rootNamespace": "GameDev.tv.Stats",
    "references": [
        "GUID:df94740e9cdb3574b8220396fc63eefc"
    ],
    "includePlatforms": [],
    "excludePlatforms": [],
    "allowUnsafeCode": false,
    "overrideReferences": true,
    "precompiledReferences": [
        "Newtonsoft.Json.dll"
    ],
    "autoReferenced": true,
    "defineConstraints": [],
    "versionDefines": [],
    "noEngineReferences": false
}